Final Project: Mortality of COVID-19
…
Death_2021 <- read_csv("data-0XGPW.csv") %>% clean_names()
Covid_data_raw <- read_csv("Provisional_COVID-19_Deaths_by_Sex_and_Age.csv") %>% clean_names()
Covid_data_raw

## # A tibble: 71,604 x 16
##    data_as_of start_date end_date   group     year month state   sex   age_group
##    <chr>      <chr>      <chr>      <chr>    <dbl> <dbl> <chr>   <chr> <chr>    
##  1 12/01/2021 01/01/2020 11/27/2021 By Total    NA    NA United~ All ~ All Ages 
##  2 12/01/2021 01/01/2020 11/27/2021 By Total    NA    NA United~ All ~ Under 1 ~
##  3 12/01/2021 01/01/2020 11/27/2021 By Total    NA    NA United~ All ~ 0-17 yea~
##  4 12/01/2021 01/01/2020 11/27/2021 By Total    NA    NA United~ All ~ 1-4 years
##  5 12/01/2021 01/01/2020 11/27/2021 By Total    NA    NA United~ All ~ 5-14 yea~
##  6 12/01/2021 01/01/2020 11/27/2021 By Total    NA    NA United~ All ~ 15-24 ye~
##  7 12/01/2021 01/01/2020 11/27/2021 By Total    NA    NA United~ All ~ 18-29 ye~
##  8 12/01/2021 01/01/2020 11/27/2021 By Total    NA    NA United~ All ~ 25-34 ye~
##  9 12/01/2021 01/01/2020 11/27/2021 By Total    NA    NA United~ All ~ 30-39 ye~
## 10 12/01/2021 01/01/2020 11/27/2021 By Total    NA    NA United~ All ~ 35-44 ye~
## # ... with 71,594 more rows, and 7 more variables: covid_19_deaths <dbl>,
## #   total_deaths <dbl>, pneumonia_deaths <dbl>,
## #   pneumonia_and_covid_19_deaths <dbl>, influenza_deaths <dbl>,
## #   pneumonia_influenza_or_covid_19_deaths <dbl>, footnote <chr>

Covid_data <- Covid_data_raw %>% select(start_date, end_date, state, sex, age_group, covid_19_deaths, total_deaths)
Covid_data 

## # A tibble: 71,604 x 7
##    start_date end_date   state         sex       age_group covid_19_deaths total_deaths
##    <chr>      <chr>      <chr>         <chr>     <chr>               <dbl>        <dbl>
##  1 01/01/2020 11/27/2021 United States All Sexes All Ages           779402      6342417
##  2 01/01/2020 11/27/2021 United States All Sexes Under 1 ~             154        35779
##  3 01/01/2020 11/27/2021 United States All Sexes 0-17 yea~             630        63414
##  4 01/01/2020 11/27/2021 United States All Sexes 1-4 years              70         6649
##  5 01/01/2020 11/27/2021 United States All Sexes 5-14 yea~             200        10567
##  6 01/01/2020 11/27/2021 United States All Sexes 15-24 ye~            1922        68506
##  7 01/01/2020 11/27/2021 United States All Sexes 18-29 ye~            4618       120980
##  8 01/01/2020 11/27/2021 United States All Sexes 25-34 ye~            8318       143645
##  9 01/01/2020 11/27/2021 United States All Sexes 30-39 ye~           13638       176646
## 10 01/01/2020 11/27/2021 United States All Sexes 35-44 ye~           21061       210290
## # ... with 71,594 more rows
…
3.2 Mortality of COVID-19 by States

require(ggrepel)
require(ggspatial)
require(sf)
require(rnaturalearth)
require(rnaturalearthdata)
library(usmap)
require(tools)
 
Covid_data_States <- Covid_data %>% filter(sex=="All Sexes") %>% subset(state!="United States") %>% filter(age_group=="All Ages") %>% filter(start_date=="01/01/2020") %>% filter(end_date=="11/27/2021") 
Covid_data_States

## # A tibble: 53 x 7
##    start_date end_date   state     sex    age_group covid_19_deaths total_deaths
##    <chr>      <chr>      <chr>     <chr>  <chr>               <dbl>        <dbl>
##  1 01/01/2020 11/27/2021 Alabama   All S~ All Ages            15877       121980
##  2 01/01/2020 11/27/2021 Alaska    All S~ All Ages              888         9713
##  3 01/01/2020 11/27/2021 Arizona   All S~ All Ages            20331       147484
##  4 01/01/2020 11/27/2021 Arkansas  All S~ All Ages             8842        72758
##  5 01/01/2020 11/27/2021 Californ~ All S~ All Ages            77635       609666
##  6 01/01/2020 11/27/2021 Colorado  All S~ All Ages             9521        89239
##  7 01/01/2020 11/27/2021 Connecti~ All S~ All Ages             8919        66281
##  8 01/01/2020 11/27/2021 Delaware  All S~ All Ages             2139        20614
##  9 01/01/2020 11/27/2021 District~ All S~ All Ages             1627        13534
## 10 01/01/2020 11/27/2021 Florida   All S~ All Ages            59202       478737
## # ... with 43 more rows
…
As of December, 2021, the state with the highest number of COVID-19 cases was California. Around 50 million instances have been recorded across the United States, with California, Texas, and Florida reporting the most.

Despite having a typically stricter approach to pandemic management, daily COVID cases in California appear to be higher than those in Texas or Florida.

California has had a proactive approach to the pandemic, having been the first state to announce plans for vaccine requirements for school students in October.

3.3 Mortality of COVID-19 by Sex

Covid_data_Sex <- Covid_data %>% filter(age_group=="All Ages") %>% filter(state == "United States") %>% mutate(time = as.yearmon(start_date, "%m/%d/%Y")) %>% select(start_date, end_date, time, sex, covid_19_deaths) %>% tail(69)
 
Covid_data_Sex

## # A tibble: 69 x 5
##    start_date end_date   time      sex       covid_19_deaths
##    <chr>      <chr>      <yearmon> <chr>               <dbl>
##  1 01/01/2020 01/31/2020 Jan 2020  All Sexes               5
##  2 01/01/2020 01/31/2020 Jan 2020  Male                    2
##  3 01/01/2020 01/31/2020 Jan 2020  Female                  3
##  4 02/01/2020 02/29/2020 Feb 2020  All Sexes              20
##  5 02/01/2020 02/29/2020 Feb 2020  Male                   10
##  6 02/01/2020 02/29/2020 Feb 2020  Female                 10
##  7 03/01/2020 03/31/2020 Mar 2020  All Sexes            7161
##  8 03/01/2020 03/31/2020 Mar 2020  Male                 4370
##  9 03/01/2020 03/31/2020 Mar 2020  Female               2791
## 10 04/01/2020 04/30/2020 Apr 2020  All Sexes           65481
## # ... with 59 more rows
…
Immunology: Sex-based immunological differences driven by sex hormone and X chromosome,

Gender behavior: higher levels of smoking and drinking

Less responsible attitude toward the pandemic

3.4 Mortality of COVID-19 by Age Group

target <- c("All Ages","0-17 years", "18-29 years", "30-39 years", "40-49 years", "50-64 years", "65-74 years", "75-84 years", "85 years and over")
Covid_data_Ages <- Covid_data %>% filter(sex=="All Sexes") %>% filter(state == "United States") %>% mutate(time = as.yearmon(start_date, "%m/%d/%Y")) %>% select(start_date, end_date, time,age_group, covid_19_deaths) %>% tail (391) %>% subset( age_group!="All Ages"& age_group!="1-4 years" & age_group!= "15-24 years"& age_group!= "25-34 years"& age_group!= "35-44 years"& age_group!= "45-54 years"& age_group!= "5-14 years"& age_group!= "55-64 years"& age_group!= "Under 1 year")
 
Covid_data_Ages

## # A tibble: 184 x 5
##    start_date end_date   time      age_group         covid_19_deaths
##    <chr>      <chr>      <yearmon> <chr>                       <dbl>
##  1 01/01/2020 01/31/2020 Jan 2020  0-17 years                      0
##  2 01/01/2020 01/31/2020 Jan 2020  18-29 years                     0
##  3 01/01/2020 01/31/2020 Jan 2020  30-39 years                     0
##  4 01/01/2020 01/31/2020 Jan 2020  40-49 years                     0
##  5 01/01/2020 01/31/2020 Jan 2020  50-64 years                     2
##  6 01/01/2020 01/31/2020 Jan 2020  65-74 years                     1
##  7 01/01/2020 01/31/2020 Jan 2020  75-84 years                     2
##  8 01/01/2020 01/31/2020 Jan 2020  85 years and over               0
##  9 02/01/2020 02/29/2020 Feb 2020  0-17 years                      0
## 10 02/01/2020 02/29/2020 Feb 2020  18-29 years                     0
## # ... with 174 more rows
…
